<?xml version="1.0" encoding="utf-8"?>
<!-- Generator: Adobe Illustrator 16.2.0, SVG Export Plug-In . SVG Version: 6.00 Build 0)  -->
<!DOCTYPE svg PUBLIC "-//W3C//DTD SVG 1.1//EN" "http://www.w3.org/Graphics/SVG/1.1/DTD/svg11.dtd">
<svg version="1.1" id="Layer_1" xmlns="http://www.w3.org/2000/svg" xmlns:xlink="http://www.w3.org/1999/xlink" x="0px" y="0px"
	 width="226px" height="68px" viewBox="0 0 226 68" enable-background="new 0 0 226 68" xml:space="preserve">
<path fill="#221F1F" d="M19.938,64.234c-4.646,0-8.414-0.514-8.414-1.15c0-0.635,3.768-1.148,8.414-1.148
	c4.647,0,8.412,0.514,8.412,1.148C28.351,63.721,24.585,64.234,19.938,64.234"/>
<path fill="#221F1F" d="M39.794,37.488c-0.014-0.754-0.259-8.539-4.097-16.955C32.027,12.476,24.25,2.372,8.056,0.012
	C7.542-0.063,7.043,0.214,6.821,0.687c-0.219,0.47-0.095,1.035,0.293,1.382c0.068,0.061,1.675,1.53,2.142,5.212
	C9.7,10.785,9.134,16.984,3.9,26.613c-5.865,11.04-4.04,18.44-1.477,22.706c4,6.65,12,9.629,18.155,9.629
	c0.608,0,1.208-0.029,1.783-0.088C32.949,57.824,40.762,48.24,39.794,37.488 M19.938,47.635c-4.489,0-8.127-3.639-8.127-8.127
	s3.638-8.127,8.127-8.127c4.488,0,8.127,3.639,8.127,8.127S24.426,47.635,19.938,47.635"/>
<path fill="#221F1F" d="M54.284,49.404V37.822c2,2.73,4.16,4.096,6.486,4.096c0.877,0,1.592-0.223,2.145-0.67
	c0.552-0.447,0.828-1.008,0.828-1.682c0-0.973-0.601-1.92-1.804-2.846l-1.657-1.248c-1.106-0.797-2.048-1.594-2.829-2.387
	c-0.78-0.791-1.413-1.605-1.901-2.446c-0.488-0.838-0.845-1.704-1.073-2.599c-0.227-0.893-0.341-1.834-0.341-2.821
	c0-1.692,0.406-3.466,1.219-5.315c0.406-0.862,0.878-1.65,1.414-2.364c0.536-0.712,1.153-1.344,1.853-1.893
	c1.918-1.568,4.234-2.353,6.948-2.353c2.421,0,4.86,0.623,7.314,1.87V26.46c-0.828-1.283-1.771-2.295-2.827-3.035
	c-1.057-0.739-2.097-1.108-3.122-1.108c-0.779,0-1.422,0.219-1.927,0.657c-0.519,0.424-0.779,0.934-0.779,1.528
	c0,0.97,0.691,1.936,2.073,2.891l1.608,1.151c2.147,1.489,3.683,3.016,4.608,4.581c0.943,1.568,1.415,3.4,1.415,5.5
	c0,3.572-1.131,6.518-3.389,8.836c-2.26,2.318-5.12,3.479-8.582,3.479C59.575,50.939,57.015,50.428,54.284,49.404"/>
<path fill="#221F1F" d="M109.651,50.939h-9.838l-2.361-13.191c-0.458-2.551-0.803-4.762-1.032-6.631
	c-0.115-0.925-0.214-1.698-0.295-2.315c-0.082-0.617-0.14-1.09-0.172-1.416c-0.083,0.669-0.205,1.911-0.369,3.731
	c-0.075,0.928-0.164,1.902-0.268,2.926s-0.231,2.105-0.38,3.242l-1.763,13.654h-9.511l-8.386-37.644H85.32l1.658,10.362
	c0.633,4.129,1.072,7.372,1.316,9.727l0.341,3.438l0.318-2.949c0.33-3.446,0.753-6.721,1.271-9.826l1.837-10.752h8.456l1.649,9.045
	c0.785,4.21,1.467,9.191,2.049,14.945c0.179-2.584,0.374-4.875,0.585-6.875c0.211-1.999,0.446-3.811,0.707-5.436l1.853-11.68h9.923
	L109.651,50.939z"/>
<polygon fill="#221F1F" points="120.452,50.939 120.452,13.295 139.348,13.295 139.348,22.317 130.618,22.317 130.618,27.119 
	138.444,27.119 138.444,36.141 130.618,36.141 130.618,41.918 139.348,41.918 139.348,50.939 "/>
<path fill="#221F1F" d="M170.797,50.938h-10.508l-0.757-4.777h-6.85l-0.83,4.777h-10.507l9.046-37.642h12.434L170.797,50.938z
	 M158.339,38.236l-0.658-4.389c-0.017-0.016-0.05-0.234-0.097-0.658c-0.033-0.355-0.204-1.77-0.513-4.241
	c-0.033-0.276-0.073-0.655-0.123-1.136c-0.047-0.478-0.113-1.084-0.193-1.814l-0.316-3.561c-0.033,0.343-0.078,0.724-0.135,1.146
	c-0.059,0.423-0.119,0.886-0.183,1.39c-0.115,1.007-0.196,1.706-0.244,2.098c-0.048,0.389-0.082,0.625-0.099,0.707l-0.707,4.557
	l-1.023,5.9H158.339z"/>
<polygon fill="#221F1F" points="186.888,50.939 176.722,50.939 176.722,22.317 171.114,22.317 171.114,13.295 192.716,13.295 
	192.716,22.317 186.888,22.317 "/>
<path fill="#221F1F" d="M219.065,50.939h-9.666c0,0-2.652-15.133-2.832-15.652l-2.822,15.652h-10.119l6.289-37.644h8.494
	c4.584,0,8.012,0.902,10.287,2.707c2.895,2.309,4.227,4.873,4.227,9.13c0,4.553-1.828,8.415-7.043,10.155L219.065,50.939z
	 M206.802,30.192h2.045c1.172,0,2.146-0.447,2.928-1.341c0.779-0.895,1.168-2.032,1.168-3.414c0-2.812-1.469-4.219-4.412-4.219
	h-0.301L206.802,30.192z"/>
</svg>
